<svg xmlns="http://www.w3.org/2000/svg" width="64" height="57" viewBox="0 0 64 57">
  <g id="Group_23379" data-name="Group 23379" transform="translate(-130 -458)">
    <rect id="Rectangle_204" data-name="Rectangle 204" width="64" height="57" rx="11" transform="translate(130 458)" fill="#f8f8f8"/>
    <g id="Group_23373" data-name="Group 23373" transform="translate(-2 111)">
      <circle id="Ellipse_32" data-name="Ellipse 32" cx="14" cy="14" r="14" transform="translate(148 365)" fill="#6c63ff"/>
      <g id="Ellipse_33" data-name="Ellipse 33" transform="translate(152 362)" fill="none" stroke="#0a2240" stroke-width="1">
        <circle cx="14" cy="14" r="14" stroke="none"/>
        <circle cx="14" cy="14" r="13.5" fill="none"/>
      </g>
    </g>
  </g>
</svg>
